[ERROR] 2019-11-25 18:51:41.341 Application:12 - This is an error message 
[FATAL] 2019-11-25 18:51:41.345 Application:13 - This is a fatal message 
[ERROR] 2019-11-25 19:10:22.777 Application:12 - This is an error message 
[FATAL] 2019-11-25 19:10:26.962 Application:13 - This is a fatal message 
[ERROR] 2019-11-25 20:42:25.803 Application:12 - This is an error message 
[FATAL] 2019-11-25 20:42:28.396 Application:13 - This is a fatal message 
[ERROR] 2019-11-25 20:47:59.159 Application:12 - This is an error message 
[FATAL] 2019-11-25 20:48:02.151 Application:13 - This is a fatal message 
[ERROR] 2019-11-25 20:49:51.056 Application:12 - This is an error message 
[FATAL] 2019-11-25 20:49:53.835 Application:13 - This is a fatal message 
[ERROR] 2019-11-25 20:50:32.210 Application:12 - This is an error message 
[FATAL] 2019-11-25 20:50:34.745 Application:13 - This is a fatal message 
[ERROR] 2019-11-25 20:51:47.653 Application:12 - This is an error message 
[FATAL] 2019-11-25 20:51:51.622 Application:13 - This is a fatal message 
[ERROR] 2019-11-25 20:54:49.201 Application:12 - This is an error message 
[FATAL] 2019-11-25 20:54:53.373 Application:13 - This is a fatal message 
[ERROR] 2019-11-25 20:55:12.890 Application:12 - This is an error message 
[FATAL] 2019-11-25 20:55:17.115 Application:13 - This is a fatal message 
[ERROR] 2019-11-25 20:56:04.562 Application:12 - This is an error message 
[FATAL] 2019-11-25 20:56:08.542 Application:13 - This is a fatal message 
[ERROR] 2019-11-25 20:56:23.809 Application:12 - This is an error message 
[FATAL] 2019-11-25 20:56:27.898 Application:13 - This is a fatal message 
[ERROR] 2019-11-25 20:56:37.294 Application:12 - This is an error message 
[ERROR] 2019-11-25 20:56:49.932 Application:12 - This is an error message 
[FATAL] 2019-11-25 20:56:53.711 Application:13 - This is a fatal message 
[ERROR] 2019-11-25 20:57:46.123 Application:12 - This is an error message 
[FATAL] 2019-11-25 20:57:49.849 Application:13 - This is a fatal message 
[ERROR] 2019-11-25 20:58:28.015 Application:12 - This is an error message 
[FATAL] 2019-11-25 20:58:31.616 Application:13 - This is a fatal message 
[ERROR] 2019-11-25 20:58:49.662 Application:12 - This is an error message 
[FATAL] 2019-11-25 20:58:53.309 Application:13 - This is a fatal message 
[ERROR] 2019-11-25 20:59:05.682 Application:12 - This is an error message 
[FATAL] 2019-11-25 20:59:09.882 Application:13 - This is a fatal message 
[ERROR] 2019-11-25 21:23:02.756 Application:12 - This is an error message 
[FATAL] 2019-11-25 21:23:06.657 Application:13 - This is a fatal message 
[ERROR] 2019-11-25 21:23:52.174 Application:12 - This is an error message 
[FATAL] 2019-11-25 21:23:56.278 Application:13 - This is a fatal message 
[ERROR] 2019-11-25 21:25:25.377 Application:12 - This is an error message 
[FATAL] 2019-11-25 21:25:28.629 Application:13 - This is a fatal message 
[ERROR] 2019-11-25 21:25:47.803 Application:12 - This is an error message 
[FATAL] 2019-11-25 21:25:51.029 Application:13 - This is a fatal message 
[ERROR] 2019-11-25 21:30:23.229 Application:12 - This is an error message 
[FATAL] 2019-11-25 21:30:26.848 Application:13 - This is a fatal message 
[ERROR] 2019-11-25 21:30:55.561 Application:12 - This is an error message 
[FATAL] 2019-11-25 21:30:59.372 Application:13 - This is a fatal message 
[ERROR] 2019-11-25 22:19:33.655 Application:12 - This is an error message 
[FATAL] 2019-11-25 22:19:38.031 Application:13 - This is a fatal message 
